134397 154900 375
30 17918 279
353192 896911 525
807359 841311 525
460781 509186 444
845193 207458 525
621041 812945 509
94398 342045 443
275533 960744 525
146985 840318 525
684134 483839 509
774576 485424 509
419127 216079 449
420256 336747 449
58954 147194 375
223513 398398 443
401301 669847 509
43820 949311 525
381139 558848 470
982590 878546 507
380538 819485 509
854287 69999 525
747293 663045 504
107878 102851 354
109373 822795 509
404812 255767 441
458954 326618 449
376435 285209 441
415659 318772 449
784460 127967 509
528514 574629 452
249597 5158 443
410235 539509 470
500906 814620 509
369746 754939 509
748737 243644 509
179364 836461 509
276688 851412 525
570733 259797 470
781944 757184 468
939344 883071 476
391767 102997 443
637519 370595 509
928902 812217 525
974773 534908 525
12142 319636 443
339344 669407 509
674809 185342 509
658711 322062 509
904797 922344 476
597913 669112 509
729396 806077 468
279452 858903 525
804215 148920 509
683477 658479 442
911051 871361 476
213020 244621 443
240262 148097 443
139775 973935 525
307071 837567 509
249324 622130 470
48707 564871 470
517057 111803 470
937733 982552 507
896248 843170 445
723852 575297 509
299326 717248 509
123855 771332 509
93522 598156 470
905639 478686 525
345834 565358 470
462955 890044 525
47419 347737 443
602966 615584 447
855372 559655 525
58318 724781 509
442313 28217 449
289986 325377 384
332756 503668 449
730795 57139 509
692563 300221 509
336135 762829 509
106253 110026 323
957357 195118 525
200439 652454 509
319856 865881 525
507069 829008 509
666872 835274 504
956839 464148 525
113581 989520 525
175291 577570 470
965737 629713 525
789858 645286 504
734693 639993 504
359552 175607 443
297886 907082 525
279962 748609 509
910982 291863 525
59947 827650 509
766377 703020 504
