295287 585285 470
170870 221318 386
620606 725897 509
359863 700844 509
167138 850516 525
181947 205903 360
232570 744446 509
232462 663979 509
153389 640181 509
184849 572022 470
99029 769166 509
245754 358154 441
234528 244323 368
138796 402771 443
12641 119312 354
62782 724699 509
346752 433829 449
3963 599247 470
10303 55886 340
97723 858655 525
27309 138900 354
19143 157638 383
229964 454468 449
44898 191375 383
78731 216435 386
628712 964907 525
57960 627380 509
614229 769725 509
3924 37851 324
46962 109442 354
188716 479888 449
13153 894461 525
49972 296508 443
259881 589792 470
698 310150 443
623421 775146 509
2562 62059 340
180401 848745 525
717570 787103 468
601065 611174 403
592196 836219 509
670 21840 279
324231 931843 525
126597 368004 443
417140 480411 444
10664 643206 509
230043 344289 443
856626 906717 445
53582 64077 335
916470 993188 507
465515 494010 426
670512 855978 525
108635 733820 509
520097 588945 452
390120 777545 509
113 40810 324
78910 808901 509
5408 110065 354
63180 370564 443
72104 226787 386
5264 988216 525
90152 843976 525
423605 440362 418
139739 489651 449
52119 279904 443
375017 395016 436
77470 283875 443
145586 329980 443
409227 988419 525
17296 54967 340
506966 635394 509
159181 896078 525
278494 707480 509
84540 217741 386
455259 516913 470
70469 961722 525
584314 830871 509
106112 353984 443
33951 72741 340
119893 292022 443
241989 842825 525
154429 642909 509
844837 970733 507
76815 177097 383
780314 924517 525
41020 241467 443
256231 876895 525
13282 36908 324
33949 176390 383
96002 178769 383
214306 215528 280
471914 714782 509
778222 946187 525
312205 350334 441
295811 428752 449
168253 404275 443
260201 362095 441
348289 430978 449
42738 52776 340
680052 808330 504
373170 872841 525
38829 53553 340
52517 220044 386
849325 850460 357
757101 861461 525
95258 122438 354
649322 686070 442
654138 672441 442
109931 938689 525
449578 683887 509
685793 697832 442
481788 671719 509
25208 168048 383
472893 909105 525
426162 743474 509
92090 198114 383
171153 283582 443
44553 398752 443
583407 858479 525
379476 932761 525
267082 311143 407
182539 345982 443
653519 925121 525
79941 145820 375
113590 557548 470
218323 263952 443
359024 434219 449
284218 315305 389
432503 554718 470
329746 339441 366
364862 458194 449
762255 947208 525
297263 338276 384
682247 761751 504
419287 627873 509
56568 949396 525
1427 298765 443
113869 936228 525
649507 830151 504
47462 120398 354
174869 428105 449
492943 643076 509
244185 320019 407
344252 497292 449
204492 215492 373
171426 205630 365
366787 923342 525
470533 931812 525
464772 531499 470
860966 974723 507
119864 420777 449
342657 614738 470
353102 735847 509
200357 976130 525
355459 665716 509
107746 470046 449
230496 480875 449
306815 472494 449
9355 104205 351
364828 708332 509
199355 839221 525
71585 509733 449
101425 615853 470
18505 24178 282
351290 651459 509
185049 339426 443
734859 955722 525
819408 824480 450
155441 537832 470
145123 773916 509
206409 413487 449
715719 813718 468
826932 873433 525
68709 211606 383
577192 772347 509
222464 330037 443
793671 866602 525
105574 374128 443
246083 797665 509
65738 146157 375
223753 429909 449
47652 554062 470
357421 472448 449
261779 593549 470
165031 695501 509
566042 730177 509
337846 644128 509
13544 519699 470
317400 346456 441
374242 527901 470
28448 167593 383
242949 246721 337
194277 214058 373
367320 549351 470
32803 51858 324
123373 460845 449
155738 213792 383
95640 900100 525
327300 426150 449
201492 212870 373
